module fiberapi

go 1.16

require (
	github.com/andybalholm/brotli v1.0.2 // indirect
	github.com/gofiber/fiber/v2 v2.9.0
	github.com/klauspost/compress v1.12.2 // indirect
	github.com/valyala/fasthttp v1.24.0 // indirect
	github.com/valyala/tcplisten v1.0.0 // indirect
	golang.org/x/sys v0.0.0-20210503173754-0981d6026fa6 // indirect
)
